asgiref==3.2.3
atomicwrites==1.3.0
attrs==19.3.0
Django==3.0.2
django-debug-toolbar==2.1
django-extensions==2.2.5
djangorestframework==3.11.0
importlib-metadata==0.23
more-itertools==7.2.0
packaging==19.2
pkg-resources==0.0.0
pluggy==0.13.0
py==1.8.0
pyparsing==2.4.5
pytest==5.2.2
pytz==2019.3
six==1.13.0
sqlparse==0.3.0
wcwidth==0.1.7
zipp==0.6.0
